[  311.779625] perf: interrupt took too long (2510 > 2500), lowering kernel.perf_event_max_sample_rate to 79500
[  779.663847] perf: interrupt took too long (3940 > 3923), lowering kernel.perf_event_max_sample_rate to 50750
[ 1229.684586] usb 1-1: New USB device found, idVendor=15d9, idProduct=0a4f
[ 1229.684596] usb 1-1: Product:  USB OPTICAL MOUSE
[ 1229.764371] hid-generic 0003:15D9:0A4F.0006: input,hidraw3: USB HID v1.11 Mouse [ USB OPTICAL MOUSE] on usb-0000:00:1d.0-1/input0
